%YAML 1.1
%TAG !u! tag:unity3d.com,2011:
--- !u!1045 &1
EditorBuildSettings:
  m_ObjectHideFlags: 0
  serializedVersion: 2
  m_Scenes:
  - enabled: 0
    path: 
    guid: 00000000000000000000000000000000
  - enabled: 1
    path: Assets/Scenes/CubeGame.unity
    guid: 9f8d13492c88d428e85959aa440aa3a1
  m_configObjects:
    UnityEditor.XR.ARCore.ARCoreSettings: {fileID: 11400000, guid: 9a1db21c349db456dbb09fb178cba61b, type: 2}
    com.unity.xr.management.loader_settings: {fileID: 11400000, guid: b653022a1b70e42d1a51d90927f13c0d, type: 2}
